-------------------------------------------------------------------------------
Test set: com.deque.AppTest
-------------------------------------------------------------------------------
Tests run: 1, Failures: 0, Errors: 0, Skipped: 0, Time elapsed: 9.843 sec
